375117 649187 509
993086 266181 525
686181 663470 442
444058 721470 509
823884 730058 468
347956 237115 441
850329 554000 525
736546 562211 509
437340 261688 449
224440 809647 509
453741 144565 449
767360 41632 509
831772 638693 504
765627 532481 509
845847 295974 525
404468 668061 509
969963 951459 414
389969 788717 509
369977 712090 509
874060 756777 525
180763 864745 525
306118 281807 389
521344 754553 509
605106 409461 470
866973 998412 507
453412 601543 470
163906 414937 449
323399 821078 509
373670 547994 470
795046 629505 504
684041 921335 525
226202 337848 443
174139 78765 383
391396 104113 443
745597 455032 509
514765 243121 470
4904 820311 509
53448 943541 525
616830 976731 525
961163 515125 525
738931 507970 509
853722 414602 525
52161 700151 509
456991 45703 449
319471 832167 509
179019 632742 509
136794 779303 509
387930 892105 525
670339 57032 509
493593 613876 470
485441 297771 449
72374 638828 509
809201 154089 509
513390 799252 509
29333 592297 470
225807 768251 509
354798 688405 509
161286 105477 383
963673 906845 507
96736 857738 525
970872 796340 525
240161 340044 407
377506 245110 441
649320 747561 504
848370 139345 525
805557 425037 509
538581 20569 470
894793 163416 525
192891 439331 449
940845 325862 525
265168 792319 509
266918 629048 509
971346 13327 525
871579 569440 525
617116 594417 447
607810 98766 470
52709 596266 470
754858 234102 509
462070 208569 449
237454 552837 470
507465 872928 525
183734 940438 525
732437 304579 509
155720 326621 443
695958 223507 509
548471 978834 525
229326 733957 509
19136 813284 509
213803 190951 373
597635 603597 403
297051 764096 509
583159 425797 470
936185 242748 525
254992 700103 509
554661 800934 509
122905 60398 354
861236 413613 525
973164 212160 525
142387 46983 354
113021 325488 443
813546 380820 509
593190 450786 470
452641 289570 449
689233 705860 504
65863 857391 525
996934 108723 525
836081 109500 509
287613 585310 470
918602 204445 525
384961 44820 443
577297 308850 470
124588 92609 354
204660 895927 525
763910 703109 504
808215 568164 509
292351 468303 449
609488 915312 525
776609 330672 509
418254 594930 470
591172 147970 470
858155 518110 525
140197 291181 443
427521 802258 509
145369 419264 449
814112 811693 375
189887 554108 470
573652 124185 470
184129 628019 509
609257 861919 525
93153 630415 509
108148 61693 354
970267 849802 507
714976 815932 468
719765 123591 509
312972 99843 443
523454 446677 470
247705 660167 509
303698 473425 449
485256 299489 449
643630 316819 509
257942 228158 443
616550 339196 470
897896 339366 525
925727 578833 525
613450 513345 452
574135 519196 452
15777 188848 383
935048 786104 525
805651 553932 509
845695 419640 525
920574 550052 525
147186 468730 449
399100 418492 449
46345 53766 340
605038 437091 470
753899 269555 509
350615 272323 441
818812 399475 509
732432 122490 509
316198 723504 509
437117 204342 449
565451 887117 525
236975 371997 441
536130 240405 470
900875 827862 525
104559 134732 354
858630 475552 525
434878 143938 449
310794 561647 470
969761 691486 525
579375 270518 470
837534 489361 509
415987 509780 444
785569 64827 509
548998 785537 509
126273 279957 443
423740 266410 449
302707 193267 443
278891 545618 470
413398 237537 449
88781 964403 525
912215 198009 525
369762 466961 449
982610 546221 525
871640 605983 525
763528 116947 509
585340 38785 470
562814 273471 470
171773 976626 525
128912 406067 443
926762 25559 525
187484 111248 383
522022 711575 509
658607 308608 509
537252 832548 509
308822 969084 525
706656 581815 509
665701 830832 504
54042 84316 351
274197 785083 509
