371985 631757 509
823403 19617 509
86782 228465 386
263779 725981 509
94999 460930 449
242188 111263 443
290259 265483 407
923008 145159 525
283517 216910 443
999069 992356 440
130643 426704 449
775548 528430 509
816857 989586 525
882670 996442 507
432704 532712 470
966834 635364 525
2707 683319 509
623534 869332 525
684589 536262 509
680968 703675 442
974468 398689 525
331003 861035 525
524826 674963 509
730149 543142 509
435209 710487 509
275169 496893 449
630874 933442 525
372102 337495 441
175038 138097 383
135153 757231 509
276351 785909 509
633768 124322 509
591155 281135 470
481120 861818 525
674642 745962 504
989214 59265 525
930018 859813 476
484745 544032 470
970169 264157 525
430670 618838 470
698405 760039 504
623679 183628 470
213780 41111 383
20082 397870 443
134906 680925 509
677969 724363 504
268017 606832 470
965027 922785 507
304503 674721 509
512165 354120 470
270897 109408 443
449516 889308 525
105755 376323 443
983471 180785 525
488709 313567 449
437094 668127 509
438874 879822 525
738948 192987 509
127648 626087 470
726877 589167 509
693876 756459 504
193884 323031 443
732381 95576 509
332264 230844 407
264041 650486 509
371465 704635 509
382457 287421 441
786055 505153 509
412878 278230 449
606442 86752 470
796391 378990 509
357171 430119 449
854130 131174 525
230565 71358 386
808446 526425 509
796420 10837 509
987612 345720 525
69160 219482 386
16397 278457 443
518801 140880 470
736186 279193 509
812697 115118 509
83510 136710 354
673581 580125 509
914287 236640 525
206844 869122 525
897631 230993 525
189922 955810 525
718427 416780 509
571188 578984 390
264461 564185 470
201088 632103 509
938648 609445 525
706614 800497 468
968362 770468 525
589207 731492 509
927027 26857 525
134189 344639 443
60884 726232 509
190583 726862 509
385997 713041 509
727371 449853 509
289563 942352 525
308340 351540 441
383724 925304 525
334106 549698 470
776030 957394 525
547299 796548 509
398720 338628 441
494573 897153 525
779139 175143 509
886899 14564 525
371478 448847 449
688752 670169 398
131120 849649 525
198634 578655 470
374364 784792 509
249545 70946 443
644922 754284 504
865446 561451 525
430809 977012 525
229424 640622 509
616428 609440 447
417803 380610 449
419069 647193 509
125646 846158 525
103769 380330 443
978918 831480 525
751650 192859 509
344212 357223 441
402611 398841 387
761754 669254 504
762020 870547 525
179563 646056 509
949562 864323 507
937441 331744 525
975086 983090 427
744250 662278 504
766388 496455 509
465830 537531 470
233109 128131 443
677905 716704 504
798506 384341 509
529712 943922 525
91214 364869 443
302206 792531 509
171603 117839 383
404318 599326 470
850095 44015 525
124194 775762 509
696259 34413 509
358220 666818 509
826524 824206 344
391222 323669 441
471073 263329 449
343314 344538 335
790330 999857 525
374421 982287 525
593758 182348 470
8590 214297 383
257444 108093 443
727229 383948 509
159867 354402 443
756366 794336 468
964543 510214 525
858113 994284 507
779044 319919 509
742345 903247 525
99470 556257 470
856242 66153 525
733373 629099 504
309690 577341 470
252424 390584 441
774065 934973 525
527435 895829 525
124496 295834 443
922306 800583 525
163697 247466 443
590837 123513 470
881390 94332 525
213473 445379 449
614190 885859 525
742543 933699 525
794124 463999 509
633574 133623 509
13045 811995 509
606182 318837 470
611713 845014 525
288634 654971 509
144939 909027 525
418272 636303 509
195764 97122 383
457197 813695 509
206588 680419 509
484889 326903 449
20180 260406 443
361176 343892 441
435080 525627 470
102032 453985 449
790698 162212 509
185943 524659 470
580917 805967 509
570076 289848 470
774062 382652 509
675691 573837 509
231332 511910 449
531077 162880 470
466646 391503 449
853844 83258 525
133025 484332 449
748840 334297 509
877837 459529 525
563808 999117 525
240135 852803 525
359180 111415 443
656943 922456 525
105103 955445 525
501050 330771 449
63907 97016 351
631825 990256 525
241389 975748 525
64376 571706 470
906706 882080 445
669499 403208 509
745411 790875 468
484159 160250 449
506524 704841 509
851140 794278 525
989978 643275 525
43322 472341 449
658866 969198 525
187575 232196 443
167122 57314 383
329550 538605 470
70197 173733 383
637917 729512 504
347648 376256 410
858152 651579 525
940950 484186 525
950797 957740 414
261010 251863 363
790680 964539 525
665410 658316 442
844665 465519 525
124593 101901 354
318703 181778 443
437804 93826 449
71389 524278 470
625875 990854 525
423373 231392 449
755125 802217 468
389829 458484 449
567205 28283 470
916958 202941 525
676592 96990 509
856674 317467 525
882471 288702 525
659462 379950 509
55125 310664 443
98703 703232 509
380152 986432 525
198809 812315 509
645173 314410 509
632906 968404 525
130676 821383 509
360452 724600 509
271589 846987 525
357631 468017 449
349057 802298 509
859295 938246 476
248846 864619 525
108891 943564 525
896698 249724 525
938687 439241 525
268076 685987 509
16998 966392 525
369494 907596 525
436564 456350 400
992834 52498 525
177898 752721 509
74142 822597 509
406312 479108 449
675591 295190 509
684457 222731 509
77137 801706 509
409990 904565 525
813785 39892 509
367381 933678 525
763153 309143 509
705240 513856 509
622736 206813 470
834010 614084 509
933910 668598 525
749209 815768 468
27914 906706 525
678627 160634 509
775801 484262 509
220773 624535 470
887570 502195 525
57452 28541 340
